^E:\DOCUMENTS AND SETTINGS\CHRIS LOWE\DESKTOP\CUTPRICEOFFICEAPPLICATION\CUTPRICEOFFICEAPPLICATION\FRMCONFIRM.RESX|E:\DOCUMENTS AND SETTINGS\CHRIS LOWE\DESKTOP\CUTPRICEOFFICEAPPLICATION\CUTPRICEOFFICEAPPLICATION\FRMQUANTITY.RESX|E:\DOCUMENTS AND SETTINGS\CHRIS LOWE\DESKTOP\CUTPRICEOFFICEAPPLICATION\CUTPRICEOFFICEAPPLICATION\FRMSALE.RESX|E:\DOCUMENTS AND SETTINGS\CHRIS LOWE\DESKTOP\CUTPRICEOFFICEAPPLICATION\CUTPRICEOFFICEAPPLICATION\MY PROJECT\RESOURCES.RESX
E:\DOCUMENTS AND SETTINGS\CHRIS LOWE\DESKTOP\CUTPRICEOFFICEAPPLICATION\CUTPRICEOFFICEAPPLICATION\OBJ\X86\RELEASE\WINDOWSAPPLICATION1.FRMCONFIRM.RESOURCES
E:\DOCUMENTS AND SETTINGS\CHRIS LOWE\DESKTOP\CUTPRICEOFFICEAPPLICATION\CUTPRICEOFFICEAPPLICATION\OBJ\X86\RELEASE\WINDOWSAPPLICATION1.FRMQUANTITY.RESOURCES
E:\DOCUMENTS AND SETTINGS\CHRIS LOWE\DESKTOP\CUTPRICEOFFICEAPPLICATION\CUTPRICEOFFICEAPPLICATION\OBJ\X86\RELEASE\WINDOWSAPPLICATION1.FRMSALE.RESOURCES
E:\DOCUMENTS AND SETTINGS\CHRIS LOWE\DESKTOP\CUTPRICEOFFICEAPPLICATION\CUTPRICEOFFICEAPPLICATION\OBJ\X86\RELEASE\WINDOWSAPPLICATION1.RESOURCES.RESOURCES
^E:\DOCUMENTS AND SETTINGS\CHRIS LOWE\DESKTOP\CUTPRICEOFFICEAPPLICATION\CUTPRICEOFFICEAPPLICATION\DECIMALNPUTCONTROL.RESX|E:\DOCUMENTS AND SETTINGS\CHRIS LOWE\DESKTOP\CUTPRICEOFFICEAPPLICATION\CUTPRICEOFFICEAPPLICATION\FRMCONFIRM.RESX|E:\DOCUMENTS AND SETTINGS\CHRIS LOWE\DESKTOP\CUTPRICEOFFICEAPPLICATION\CUTPRICEOFFICEAPPLICATION\FRMDECIMALINPUTTEST.RESX|E:\DOCUMENTS AND SETTINGS\CHRIS LOWE\DESKTOP\CUTPRICEOFFICEAPPLICATION\CUTPRICEOFFICEAPPLICATION\FRMQUANTITY.RESX|E:\DOCUMENTS AND SETTINGS\CHRIS LOWE\DESKTOP\CUTPRICEOFFICEAPPLICATION\CUTPRICEOFFICEAPPLICATION\FRMSALE.RESX|E:\DOCUMENTS AND SETTINGS\CHRIS LOWE\DESKTOP\CUTPRICEOFFICEAPPLICATION\CUTPRICEOFFICEAPPLICATION\MY PROJECT\RESOURCES.RESX
E:\DOCUMENTS AND SETTINGS\CHRIS LOWE\DESKTOP\CUTPRICEOFFICEAPPLICATION\CUTPRICEOFFICEAPPLICATION\OBJ\X86\RELEASE\WINDOWSAPPLICATION1.DECIMALNPUTCONTROL.RESOURCES
E:\DOCUMENTS AND SETTINGS\CHRIS LOWE\DESKTOP\CUTPRICEOFFICEAPPLICATION\CUTPRICEOFFICEAPPLICATION\OBJ\X86\RELEASE\WINDOWSAPPLICATION1.FRMCONFIRM.RESOURCES
E:\DOCUMENTS AND SETTINGS\CHRIS LOWE\DESKTOP\CUTPRICEOFFICEAPPLICATION\CUTPRICEOFFICEAPPLICATION\OBJ\X86\RELEASE\WINDOWSAPPLICATION1.FRMDECIMALINPUTTEST.RESOURCES
E:\DOCUMENTS AND SETTINGS\CHRIS LOWE\DESKTOP\CUTPRICEOFFICEAPPLICATION\CUTPRICEOFFICEAPPLICATION\OBJ\X86\RELEASE\WINDOWSAPPLICATION1.FRMQUANTITY.RESOURCES
E:\DOCUMENTS AND SETTINGS\CHRIS LOWE\DESKTOP\CUTPRICEOFFICEAPPLICATION\CUTPRICEOFFICEAPPLICATION\OBJ\X86\RELEASE\WINDOWSAPPLICATION1.FRMSALE.RESOURCES
E:\DOCUMENTS AND SETTINGS\CHRIS LOWE\DESKTOP\CUTPRICEOFFICEAPPLICATION\CUTPRICEOFFICEAPPLICATION\OBJ\X86\RELEASE\WINDOWSAPPLICATION1.RESOURCES.RESOURCES
^E:\DOCUMENTS AND SETTINGS\CHRIS LOWE\DESKTOP\CUTPRICEOFFICEAPPLICATION\CUTPRICEOFFICEAPPLICATION\FRMCONFIRM.RESX|E:\DOCUMENTS AND SETTINGS\CHRIS LOWE\DESKTOP\CUTPRICEOFFICEAPPLICATION\CUTPRICEOFFICEAPPLICATION\FRMDECIMALINPUTTEST.RESX|E:\DOCUMENTS AND SETTINGS\CHRIS LOWE\DESKTOP\CUTPRICEOFFICEAPPLICATION\CUTPRICEOFFICEAPPLICATION\FRMQUANTITY.RESX|E:\DOCUMENTS AND SETTINGS\CHRIS LOWE\DESKTOP\CUTPRICEOFFICEAPPLICATION\CUTPRICEOFFICEAPPLICATION\FRMSALE.RESX|E:\DOCUMENTS AND SETTINGS\CHRIS LOWE\DESKTOP\CUTPRICEOFFICEAPPLICATION\CUTPRICEOFFICEAPPLICATION\MY PROJECT\RESOURCES.RESX
E:\DOCUMENTS AND SETTINGS\CHRIS LOWE\DESKTOP\CUTPRICEOFFICEAPPLICATION\CUTPRICEOFFICEAPPLICATION\OBJ\X86\RELEASE\WINDOWSAPPLICATION1.FRMCONFIRM.RESOURCES
E:\DOCUMENTS AND SETTINGS\CHRIS LOWE\DESKTOP\CUTPRICEOFFICEAPPLICATION\CUTPRICEOFFICEAPPLICATION\OBJ\X86\RELEASE\WINDOWSAPPLICATION1.FRMDECIMALINPUTTEST.RESOURCES
E:\DOCUMENTS AND SETTINGS\CHRIS LOWE\DESKTOP\CUTPRICEOFFICEAPPLICATION\CUTPRICEOFFICEAPPLICATION\OBJ\X86\RELEASE\WINDOWSAPPLICATION1.FRMQUANTITY.RESOURCES
E:\DOCUMENTS AND SETTINGS\CHRIS LOWE\DESKTOP\CUTPRICEOFFICEAPPLICATION\CUTPRICEOFFICEAPPLICATION\OBJ\X86\RELEASE\WINDOWSAPPLICATION1.FRMSALE.RESOURCES
E:\DOCUMENTS AND SETTINGS\CHRIS LOWE\DESKTOP\CUTPRICEOFFICEAPPLICATION\CUTPRICEOFFICEAPPLICATION\OBJ\X86\RELEASE\WINDOWSAPPLICATION1.RESOURCES.RESOURCES
