^E:\DOCUMENTS AND SETTINGS\CHRIS LOWE\DESKTOP\CUTPRICEOFFICEAPPLICATION\CUTPRICEOFFICEAPPLICATION\MY PROJECT\RESOURCES.RESX
^E:\DOCUMENTS AND SETTINGS\CHRIS LOWE\DESKTOP\CUTPRICEOFFICEAPPLICATION\CUTPRICEOFFICEAPPLICATION\FRMCONFIRM.RESX
^E:\DOCUMENTS AND SETTINGS\CHRIS LOWE\DESKTOP\CUTPRICEOFFICEAPPLICATION\CUTPRICEOFFICEAPPLICATION\FRMDECIMALINPUTTEST.RESX
^E:\DOCUMENTS AND SETTINGS\CHRIS LOWE\DESKTOP\CUTPRICEOFFICEAPPLICATION\CUTPRICEOFFICEAPPLICATION\DECIMALNPUTCONTROL.RESX
^E:\DOCUMENTS AND SETTINGS\CHRIS LOWE\DESKTOP\CUTPRICEOFFICEAPPLICATION\CUTPRICEOFFICEAPPLICATION\FRMQUANTITY.RESX
^E:\DOCUMENTS AND SETTINGS\CHRIS LOWE\DESKTOP\CUTPRICEOFFICEAPPLICATION\CUTPRICEOFFICEAPPLICATION\FRMSALE.RESX
^E:\DOCUMENTS AND SETTINGS\CHRIS LOWE\DESKTOP\CUTPRICEOFFICEAPPLICATION\CUTPRICEOFFICEAPPLICATION\FRMADDSTOCK.RESX
^E:\DOCUMENTS AND SETTINGS\CHRIS LOWE\DESKTOP\CUTPRICEOFFICEAPPLICATION\CUTPRICEOFFICEAPPLICATION\FRMSALESHISTORY.RESX
^C:\USERS\LOWECH\DESKTOP\CUTPRICE\CUTPRICEOFFICEAPPLICATION\CUTPRICEOFFICEAPPLICATION\DECIMALNPUTCONTROL.RESX
^C:\USERS\LOWECH\DESKTOP\CUTPRICE\CUTPRICEOFFICEAPPLICATION\CUTPRICEOFFICEAPPLICATION\FRMADDSTOCK.RESX
^C:\USERS\LOWECH\DESKTOP\CUTPRICE\CUTPRICEOFFICEAPPLICATION\CUTPRICEOFFICEAPPLICATION\FRMCONFIRM.RESX
^C:\USERS\LOWECH\DESKTOP\CUTPRICE\CUTPRICEOFFICEAPPLICATION\CUTPRICEOFFICEAPPLICATION\FRMDECIMALINPUTTEST.RESX
^C:\USERS\LOWECH\DESKTOP\CUTPRICE\CUTPRICEOFFICEAPPLICATION\CUTPRICEOFFICEAPPLICATION\FRMQUANTITY.RESX
^C:\USERS\LOWECH\DESKTOP\CUTPRICE\CUTPRICEOFFICEAPPLICATION\CUTPRICEOFFICEAPPLICATION\FRMSALE.RESX
^C:\USERS\LOWECH\DESKTOP\CUTPRICE\CUTPRICEOFFICEAPPLICATION\CUTPRICEOFFICEAPPLICATION\FRMSALESHISTORY.RESX
^C:\USERS\LOWECH\DESKTOP\CUTPRICE\CUTPRICEOFFICEAPPLICATION\CUTPRICEOFFICEAPPLICATION\MY PROJECT\RESOURCES.RESX
